<?xml version="1.0" encoding="UTF-8" standalone="no"?>
<!-- Created with Inkscape (http://www.inkscape.org/) -->

<svg
   xmlns:dc="http://purl.org/dc/elements/1.1/"
   xmlns:cc="http://creativecommons.org/ns#"
   xmlns:rdf="http://www.w3.org/1999/02/22-rdf-syntax-ns#"
   xmlns:svg="http://www.w3.org/2000/svg"
   xmlns="http://www.w3.org/2000/svg"
   xmlns:xlink="http://www.w3.org/1999/xlink"
   xmlns:sodipodi="http://sodipodi.sourceforge.net/DTD/sodipodi-0.dtd"
   xmlns:inkscape="http://www.inkscape.org/namespaces/inkscape"
   width="512"
   height="512"
   viewBox="0 0 135.46666 135.46666"
   version="1.1"
   id="svg8"
   inkscape:version="0.92.4 (5da689c313, 2019-01-14)"
   sodipodi:docname="libreda_electron_logo_square.svg">
  <title
     id="title992">Electron Placer Logo</title>
  <defs
     id="defs2">
    <linearGradient
       id="linearGradient1667"
       inkscape:collect="always">
      <stop
         id="stop1659"
         offset="0"
         style="stop-color:#fffdd2;stop-opacity:1" />
      <stop
         style="stop-color:#ffd24e;stop-opacity:1"
         offset="0.24999997"
         id="stop1661" />
      <stop
         id="stop1663"
         offset="0.60000038"
         style="stop-color:#f92f2f;stop-opacity:0.71238941" />
      <stop
         id="stop1665"
         offset="1"
         style="stop-color:#0705ff;stop-opacity:0" />
    </linearGradient>
    <radialGradient
       inkscape:collect="always"
       xlink:href="#linearGradient1667"
       id="radialGradient1285"
       gradientUnits="userSpaceOnUse"
       gradientTransform="matrix(1.6809003,1.5968546,-2.7290604,2.8726962,408.78135,-192.11861)"
       cx="17.229198"
       cy="135.37274"
       fx="17.229198"
       fy="135.37274"
       r="14.736454" />
    <radialGradient
       inkscape:collect="always"
       xlink:href="#linearGradient1667"
       id="radialGradient1671"
       gradientUnits="userSpaceOnUse"
       gradientTransform="matrix(-1.6809003,1.5968546,2.7290604,2.8726962,-283.85899,-192.11861)"
       cx="17.229198"
       cy="135.37274"
       fx="17.229198"
       fy="135.37274"
       r="14.736454" />
    <radialGradient
       inkscape:collect="always"
       xlink:href="#linearGradient1667"
       id="radialGradient1677"
       gradientUnits="userSpaceOnUse"
       gradientTransform="matrix(1.6809003,-1.5968546,-2.7290604,-2.8726962,408.78135,650.99466)"
       cx="17.229198"
       cy="135.37274"
       fx="17.229198"
       fy="135.37274"
       r="14.736454" />
    <radialGradient
       inkscape:collect="always"
       xlink:href="#linearGradient1667"
       id="radialGradient1679"
       gradientUnits="userSpaceOnUse"
       gradientTransform="matrix(-1.6809003,-1.5968546,2.7290604,-2.8726962,-283.85899,650.99466)"
       cx="17.229198"
       cy="135.37274"
       fx="17.229198"
       fy="135.37274"
       r="14.736454" />
    <filter
       inkscape:collect="always"
       style="color-interpolation-filters:sRGB"
       id="filter2143"
       x="-0.049200001"
       width="1.0984"
       y="-0.049199999"
       height="1.0984">
      <feGaussianBlur
         inkscape:collect="always"
         stdDeviation="1.9162577"
         id="feGaussianBlur2145" />
    </filter>
  </defs>
  <sodipodi:namedview
     id="base"
     pagecolor="#ffffff"
     bordercolor="#666666"
     borderopacity="1.0"
     inkscape:pageopacity="0.0"
     inkscape:pageshadow="2"
     inkscape:zoom="0.5"
     inkscape:cx="-165.45606"
     inkscape:cy="204.68794"
     inkscape:document-units="mm"
     inkscape:current-layer="layer1"
     showgrid="false"
     units="px"
     inkscape:window-width="1362"
     inkscape:window-height="729"
     inkscape:window-x="0"
     inkscape:window-y="18"
     inkscape:window-maximized="0"
     inkscape:snap-grids="true"
     inkscape:snap-to-guides="true"
     inkscape:snap-bbox="true"
     inkscape:bbox-paths="false"
     inkscape:snap-bbox-edge-midpoints="true"
     inkscape:bbox-nodes="true">
    <inkscape:grid
       type="xygrid"
       id="grid815"
       empspacing="4" />
  </sodipodi:namedview>
  <metadata
     id="metadata5">
    <rdf:RDF>
      <cc:Work
         rdf:about="">
        <dc:format>image/svg+xml</dc:format>
        <dc:type
           rdf:resource="http://purl.org/dc/dcmitype/StillImage" />
        <dc:title>Electron Placer Logo</dc:title>
        <dc:creator>
          <cc:Agent>
            <dc:title>Thomas Kramer</dc:title>
          </cc:Agent>
        </dc:creator>
        <cc:license
           rdf:resource="" />
      </cc:Work>
    </rdf:RDF>
  </metadata>
  <g
     inkscape:label="Layer 1"
     inkscape:groupmode="layer"
     id="layer1"
     transform="translate(0,-161.53336)">
    <g
       id="g1076"
       transform="translate(-4.2333367,4.2333333)">
      <path
         inkscape:connector-curvature="0"
         id="path819"
         d="m 21.16667,174.23336 v 101.6 h 101.6"
         style="fill:none;stroke:#000000;stroke-width:6.3499999;stroke-linecap:square;stroke-linejoin:miter;stroke-miterlimit:4;stroke-dasharray:none;stroke-opacity:1" />
      <g
         id="g1062">
        <path
           style="fill:none;stroke:#000000;stroke-width:6.3499999;stroke-linecap:square;stroke-linejoin:miter;stroke-miterlimit:4;stroke-dasharray:none;stroke-opacity:1"
           d="m 21.16667,191.1667 h -12.7"
           id="path821"
           inkscape:connector-curvature="0" />
        <path
           inkscape:connector-curvature="0"
           id="path825"
           d="M 21.16667,208.10003 H 8.4666703"
           style="fill:none;stroke:#000000;stroke-width:6.3499999;stroke-linecap:square;stroke-linejoin:miter;stroke-miterlimit:4;stroke-dasharray:none;stroke-opacity:1" />
        <path
           style="fill:none;stroke:#000000;stroke-width:6.3499999;stroke-linecap:square;stroke-linejoin:miter;stroke-miterlimit:4;stroke-dasharray:none;stroke-opacity:1"
           d="M 21.16667,225.03336 H 8.4666706"
           id="path827"
           inkscape:connector-curvature="0" />
        <path
           inkscape:connector-curvature="0"
           id="path829"
           d="M 21.16667,241.9667 H 8.466671"
           style="fill:none;stroke:#000000;stroke-width:6.3499999;stroke-linecap:square;stroke-linejoin:miter;stroke-miterlimit:4;stroke-dasharray:none;stroke-opacity:1" />
        <path
           style="fill:none;stroke:#000000;stroke-width:6.3499999;stroke-linecap:square;stroke-linejoin:miter;stroke-miterlimit:4;stroke-dasharray:none;stroke-opacity:1"
           d="M 21.16667,258.90003 H 8.466671"
           id="path831"
           inkscape:connector-curvature="0" />
        <path
           inkscape:connector-curvature="0"
           id="path840"
           d="m 38.100008,275.83336 v 12.7"
           style="fill:none;stroke:#000000;stroke-width:6.3499999;stroke-linecap:square;stroke-linejoin:miter;stroke-miterlimit:4;stroke-dasharray:none;stroke-opacity:1" />
        <path
           style="fill:none;stroke:#000000;stroke-width:6.3499999;stroke-linecap:square;stroke-linejoin:miter;stroke-miterlimit:4;stroke-dasharray:none;stroke-opacity:1"
           d="m 55.033338,275.83336 v 12.7"
           id="path842"
           inkscape:connector-curvature="0" />
        <path
           inkscape:connector-curvature="0"
           id="path844"
           d="m 71.966668,275.83336 v 12.7"
           style="fill:none;stroke:#000000;stroke-width:6.3499999;stroke-linecap:square;stroke-linejoin:miter;stroke-miterlimit:4;stroke-dasharray:none;stroke-opacity:1" />
        <path
           style="fill:none;stroke:#000000;stroke-width:6.3499999;stroke-linecap:square;stroke-linejoin:miter;stroke-miterlimit:4;stroke-dasharray:none;stroke-opacity:1"
           d="m 88.900008,275.83336 v 12.7"
           id="path846"
           inkscape:connector-curvature="0" />
        <path
           inkscape:connector-curvature="0"
           id="path848"
           d="m 105.83334,275.83336 v 12.7"
           style="fill:none;stroke:#000000;stroke-width:6.3499999;stroke-linecap:square;stroke-linejoin:miter;stroke-miterlimit:4;stroke-dasharray:none;stroke-opacity:1" />
      </g>
    </g>
    <rect
       style="opacity:1;fill:#000000;fill-opacity:1;stroke:none;stroke-width:6.90449858;stroke-linecap:round;stroke-linejoin:miter;stroke-miterlimit:4;stroke-dasharray:none;stroke-opacity:1"
       id="rect1238"
       width="104.775"
       height="104.775"
       x="16.933332"
       y="175.29169" />
    <path
       style="opacity:0;fill:#0585ff;fill-opacity:1;stroke:none;stroke-width:0.26458332px;stroke-linecap:butt;stroke-linejoin:miter;stroke-opacity:1"
       d="m 25.400004,174.23336 v 97.36667 h 97.366666 v -21.16667 h -76.2 v -76.2 z"
       id="path894"
       inkscape:connector-curvature="0"
       sodipodi:nodetypes="ccccccc" />
    <path
       sodipodi:nodetypes="ccccccc"
       inkscape:connector-curvature="0"
       id="path904"
       d="m 52.916667,172.11669 v 71.96667 H 124.88333 V 222.91669 H 74.083333 v -50.8 z"
       style="opacity:0;fill:#0585ff;fill-opacity:0.74901961;stroke:none;stroke-width:0.26458332px;stroke-linecap:butt;stroke-linejoin:miter;stroke-opacity:1" />
    <path
       sodipodi:nodetypes="ccccc"
       inkscape:connector-curvature="0"
       id="path908"
       d="m 107.95,167.88336 v 21.16667 h 21.16667 v -21.16667 z"
       style="fill:#0585ff;fill-opacity:0.66814162;stroke:none;stroke-width:0.26458332px;stroke-linecap:butt;stroke-linejoin:miter;stroke-opacity:1" />
    <g
       id="g1685"
       transform="translate(5.2721496,-0.17133716)"
       style="filter:url(#filter2143)">
      <path
         sodipodi:nodetypes="zzzzz"
         inkscape:connector-curvature="0"
         id="path1281"
         d="m 65.776881,226.12233 c 3.214087,3.21409 35.354949,0 38.569039,-3.2141 3.21409,-3.21407 9.09081,-26.26413 0,-35.35494 -9.090806,-9.09082 -32.140865,-3.21409 -35.354952,0 -3.214087,3.21409 -6.428174,35.35494 -3.214087,38.56904 z"
         style="fill:url(#radialGradient1285);fill-opacity:1;stroke:none;stroke-width:0.40176079px;stroke-linecap:butt;stroke-linejoin:miter;stroke-opacity:1" />
      <path
         style="fill:url(#radialGradient1671);fill-opacity:1;stroke:none;stroke-width:0.40176079px;stroke-linecap:butt;stroke-linejoin:miter;stroke-opacity:1"
         d="m 59.145494,226.12233 c -3.21409,3.21409 -35.354958,0 -38.569047,-3.2141 -3.21409,-3.21407 -9.09081,-26.26413 0,-35.35494 9.090811,-9.09082 32.14087,-3.21409 35.354957,0 3.21409,3.21409 6.42817,35.35494 3.21409,38.56904 z"
         id="path1669"
         inkscape:connector-curvature="0"
         sodipodi:nodetypes="zzzzz" />
      <path
         style="fill:url(#radialGradient1677);fill-opacity:1;stroke:none;stroke-width:0.40176079px;stroke-linecap:butt;stroke-linejoin:miter;stroke-opacity:1"
         d="m 65.776878,232.75372 c 3.214087,-3.21409 35.354952,0 38.569042,3.2141 3.21409,3.21407 9.09081,26.26413 0,35.35494 -9.090807,9.09082 -32.140868,3.21409 -35.354955,0 -3.214087,-3.21409 -6.428174,-35.35494 -3.214087,-38.56904 z"
         id="path1673"
         inkscape:connector-curvature="0"
         sodipodi:nodetypes="zzzzz" />
      <path
         sodipodi:nodetypes="zzzzz"
         inkscape:connector-curvature="0"
         id="path1675"
         d="m 59.145494,232.75372 c -3.21409,-3.21409 -35.354958,0 -38.569047,3.2141 -3.21409,3.21407 -9.09081,26.26413 0,35.35494 9.090811,9.09082 32.14087,3.21409 35.354957,0 3.21409,-3.21409 6.42817,-35.35494 3.21409,-38.56904 z"
         style="fill:url(#radialGradient1679);fill-opacity:1;stroke:none;stroke-width:0.40176079px;stroke-linecap:butt;stroke-linejoin:miter;stroke-opacity:1" />
    </g>
  </g>
</svg>
